1.wav,"there's a faster car approaching, he's racing us for position, don't expect a blue flag"
2.wav,"there's a faster car behind, he's on our lap, we're not gonna get a blue flag"
3.wav,"faster car approaching, he's racing us for position, don't expect a blue"
4.wav,"there's a faster car behind, he's racing us for position, I don't think we'll get a blue flag"
5.wav,"faster car behind, he's racing us for position, don't expect a blue flag"
