1.wav,"we'll notify you at"
2.wav,"okay, we'll notify you at"
3.wav,"alright, we'll notify you at"
4.wav,"acknowledged, you'll be notified at"
5.wav,"okay, we'll notify you at"
6.wav,"we'll notify you at"
