1.wav,"we'll fix the front and we'll leave the rear aro"
2.wav,"we're gonna fix the front aero and leave the rear"
3.wav,"we're gonna fix the front aero only"
4.wav,"we're fixing front aero only"
5.wav,"we'll fix the front aero and leave the rear"
