1.wav,"okay, sounds like you're alright"
2.wav,"sounds like you're okay, thanks, mate"
3.wav,"good to hear you're okay"
4.wav,"didn't really catch that, but at least you're talking"
5.wav,"no idea what you just said, but at least it was something"
6.wav,"I assume that means you're okay, thanks, mate"
